<?xml version='1.0' encoding='UTF-8' ?>
<svg width='700' height='14269' viewbox='0 0 700 14269' xmlns='http://www.w3.org/2000/svg' version='1.1'>
<line x1='0' y1='14169' x2='700' y2='14169' stroke-width='1' stroke='gray'/>
<text x='50' y='14199' font-size='12'>1</text>
<text x='50' y='14074' font-size='10px'>1.00</text>
<line x1='50' y1='14050' x2='50' y2='14016' stroke-width='1' stroke='black'/>
<line x1='50' y1='14102' x2='50' y2='14095' stroke-width='1' stroke='black'/>
<text x='150' y='14199' font-size='12'>2</text>
<text x='150' y='13825' font-size='10px'>3.49</text>
<line x1='150' y1='13814' x2='150' y2='13571' stroke-width='1' stroke='black'/>
<line x1='150' y1='13890' x2='150' y2='13869' stroke-width='1' stroke='black'/>
<text x='250' y='14199' font-size='12'>3</text>
<text x='250' y='13252' font-size='10px'>9.22</text>
<line x1='250' y1='13226' x2='250' y2='12657' stroke-width='1' stroke='black'/>
<line x1='250' y1='13358' x2='250' y2='13297' stroke-width='1' stroke='black'/>
<text x='350' y='14199' font-size='12'>4</text>
<text x='350' y='12053' font-size='10px'>21.21</text>
<line x1='350' y1='12005' x2='350' y2='10560' stroke-width='1' stroke='black'/>
<line x1='350' y1='12291' x2='350' y2='12159' stroke-width='1' stroke='black'/>
<text x='450' y='14199' font-size='12'>5</text>
<text x='450' y='9986' font-size='10px'>41.88</text>
<line x1='450' y1='9800' x2='450' y2='8645' stroke-width='1' stroke='black'/>
<line x1='450' y1='10683' x2='450' y2='10194' stroke-width='1' stroke='black'/>
<text x='650' y='14199' font-size='12'>7</text>
<text x='650' y='1224' font-size='10px'>129.50</text>
<line x1='650' y1='759' x2='650' y2='50' stroke-width='1' stroke='black'/>
<line x1='650' y1='2119' x2='650' y2='1929' stroke-width='1' stroke='black'/>
</svg>